Rental - Car Type Api: November 1, 2017, 3:24 pm
Response: Array
(
    [0] => Array
        (
            [car_type_id] => 2
            [car_type_name] => PRESTIGE
            [car_type_image] => uploads/car/editcar_2.png
            [city_id] => 56
            [base_fare] => 2500 Per 2 Km
            [ride_mode] => 1
        )

    [1] => Array
        (
            [car_type_id] => 5
            [car_type_name] => SUV
            [car_type_image] => uploads/car/editcar_5.png
            [city_id] => 56
            [base_fare] => 100 Per 4 Miles
            [ride_mode] => 1
        )

    [2] => Array
        (
            [car_type_id] => 001
            [car_type_name] => Rental
            [car_type_image] => uploads/car/editcar_2.png
            [city_id] => 56
            [distance] => 
            [base_fare] => 
            [ride_mode] => 2
        )

)

city_name: null
latitude: 28.41233733378572
longitude: 77.04344049096107
-------------------------
Rental - Car Type Api: November 1, 2017, 4:38 pm
Response: Array
(
    [0] => Array
        (
            [car_type_id] => 2
            [car_type_name] => PRESTIGE
            [car_type_image] => uploads/car/editcar_2.png
            [city_id] => 56
            [base_fare] => 2500 Per 2 Km
            [ride_mode] => 1
            [currency_iso_code] => FCFA
            [currency_unicode] => 0
        )

    [1] => Array
        (
            [car_type_id] => 5
            [car_type_name] => SUV
            [car_type_image] => uploads/car/editcar_5.png
            [city_id] => 56
            [base_fare] => 100 Per 4 Miles
            [ride_mode] => 1
            [currency_iso_code] => FCFA
            [currency_unicode] => 0
        )

)

city_name: Gurugram
latitude: 28.412348244745605
longitude: 77.0434146746993
-------------------------
Rental - Car Type Api: November 1, 2017, 5:45 pm
Response: Array
(
    [0] => Array
        (
            [car_type_id] => 2
            [car_type_name] => PRESTIGE
            [car_type_image] => uploads/car/editcar_2.png
            [city_id] => 56
            [base_fare] => 2500 Per 2 Km
            [ride_mode] => 1
            [currency_iso_code] => FCFA
            [currency_unicode] => 0
        )

    [1] => Array
        (
            [car_type_id] => 5
            [car_type_name] => SUV
            [car_type_image] => uploads/car/editcar_5.png
            [city_id] => 56
            [base_fare] => 100 Per 4 Miles
            [ride_mode] => 1
            [currency_iso_code] => FCFA
            [currency_unicode] => 0
        )

)

city_name: Gurugram
latitude: 28.412307844699374
longitude: 77.0434596017003
-------------------------
Rental - Car Type Api: November 1, 2017, 5:48 pm
Response: Array
(
    [0] => Array
        (
            [car_type_id] => 2
            [car_type_name] => PRESTIGE
            [car_type_image] => uploads/car/editcar_2.png
            [city_id] => 56
            [base_fare] => 2500 Per 2 Km
            [ride_mode] => 1
            [currency_iso_code] => FCFA
            [currency_unicode] => 0
        )

    [1] => Array
        (
            [car_type_id] => 5
            [car_type_name] => SUV
            [car_type_image] => uploads/car/editcar_5.png
            [city_id] => 56
            [base_fare] => 100 Per 4 Miles
            [ride_mode] => 1
            [currency_iso_code] => FCFA
            [currency_unicode] => 0
        )

)

city_name: Gurugram
latitude: 28.412348244745605
longitude: 77.0434146746993
-------------------------
Rental - Car Type Api: November 1, 2017, 5:57 pm
Response: Array
(
    [0] => Array
        (
            [car_type_id] => 2
            [car_type_name] => PRESTIGE
            [car_type_image] => uploads/car/editcar_2.png
            [city_id] => 56
            [base_fare] => 2500 Per 2 Km
            [ride_mode] => 1
            [currency_iso_code] => FCFA
            [currency_unicode] => 0
        )

    [1] => Array
        (
            [car_type_id] => 5
            [car_type_name] => SUV
            [car_type_image] => uploads/car/editcar_5.png
            [city_id] => 56
            [base_fare] => 100 Per 4 Miles
            [ride_mode] => 1
            [currency_iso_code] => FCFA
            [currency_unicode] => 0
        )

)

city_name: Gurugram
latitude: 28.412348244745605
longitude: 77.0434146746993
-------------------------
Rental - Car Type Api: November 1, 2017, 6:42 pm
Response: Array
(
    [0] => Array
        (
            [car_type_id] => 2
            [car_type_name] => PRESTIGE
            [car_type_image] => uploads/car/editcar_2.png
            [city_id] => 56
            [base_fare] => 2500 Per 2 Km
            [ride_mode] => 1
            [currency_iso_code] => FCFA
            [currency_unicode] => 0
        )

    [1] => Array
        (
            [car_type_id] => 5
            [car_type_name] => SUV
            [car_type_image] => uploads/car/editcar_5.png
            [city_id] => 56
            [base_fare] => 100 Per 4 Miles
            [ride_mode] => 1
            [currency_iso_code] => FCFA
            [currency_unicode] => 0
        )

)

city_name: Gurugram
latitude: 28.412314922080846
longitude: 77.04343445599079
-------------------------
Rental - Car Type Api: November 1, 2017, 7:41 pm
Response: Array
(
    [0] => Array
        (
            [car_type_id] => 2
            [car_type_name] => PRESTIGE
            [car_type_image] => uploads/car/editcar_2.png
            [city_id] => 56
            [base_fare] => 2500 Per 2 Km
            [ride_mode] => 1
            [currency_iso_code] => FCFA
            [currency_unicode] => 0
        )

    [1] => Array
        (
            [car_type_id] => 5
            [car_type_name] => SUV
            [car_type_image] => uploads/car/editcar_5.png
            [city_id] => 56
            [base_fare] => 100 Per 4 Miles
            [ride_mode] => 1
            [currency_iso_code] => FCFA
            [currency_unicode] => 0
        )

)

city_name: Gurugram
latitude: 28.412337923567375
longitude: 77.0434233918786
-------------------------
Rental - Car Type Api: November 1, 2017, 7:47 pm
Response: Array
(
    [0] => Array
        (
            [car_type_id] => 2
            [car_type_name] => PRESTIGE
            [car_type_image] => uploads/car/editcar_2.png
            [city_id] => 56
            [base_fare] => 2500 Per 2 Km
            [ride_mode] => 1
            [currency_iso_code] => FCFA
            [currency_unicode] => 0
        )

    [1] => Array
        (
            [car_type_id] => 5
            [car_type_name] => SUV
            [car_type_image] => uploads/car/editcar_5.png
            [city_id] => 56
            [base_fare] => 100 Per 4 Miles
            [ride_mode] => 1
            [currency_iso_code] => FCFA
            [currency_unicode] => 0
        )

)

city_name: Gurugram
latitude: 28.412331435969133
longitude: 77.04344820231199
-------------------------
Rental - Car Type Api: November 1, 2017, 7:57 pm
Response: Array
(
    [0] => Array
        (
            [car_type_id] => 2
            [car_type_name] => PRESTIGE
            [car_type_image] => uploads/car/editcar_2.png
            [city_id] => 56
            [base_fare] => 2500 Per 2 Km
            [ride_mode] => 1
            [currency_iso_code] => FCFA
            [currency_unicode] => 0
        )

    [1] => Array
        (
            [car_type_id] => 5
            [car_type_name] => SUV
            [car_type_image] => uploads/car/editcar_5.png
            [city_id] => 56
            [base_fare] => 100 Per 4 Miles
            [ride_mode] => 1
            [currency_iso_code] => FCFA
            [currency_unicode] => 0
        )

)

city_name: Gurugram
latitude: 28.41233497465913
longitude: 77.0434347912669
-------------------------
