Rental - Car Type Api: November 3, 2017, 2:44 pm
Response: Array
(
    [0] => Array
        (
            [car_type_id] => 2
            [car_type_name] => PRESTIGE
            [car_type_image] => uploads/car/editcar_2.png
            [city_id] => 56
            [base_fare] => 2500 Per 2 Km
            [ride_mode] => 1
            [currency_iso_code] => FCFA
            [currency_unicode] => 0
        )

    [1] => Array
        (
            [car_type_id] => 5
            [car_type_name] => SUV
            [car_type_image] => uploads/car/editcar_5.png
            [city_id] => 56
            [base_fare] => 100 Per 4 Miles
            [ride_mode] => 1
            [currency_iso_code] => FCFA
            [currency_unicode] => 0
        )

    [2] => Array
        (
            [car_type_id] => 001
            [car_type_name] => Location
            [car_type_image] => uploads/car/rental_car.png
            [city_id] => 56
            [distance] => 
            [base_fare] => 
            [ride_mode] => 2
        )

)

city_name: Gurugram
latitude: 28.412348244745605
longitude: 77.0434146746993
-------------------------
Rental - Car Type Api: November 3, 2017, 3:09 pm
Response: Array
(
    [0] => Array
        (
            [car_type_id] => 2
            [car_type_name] => PRESTIGE
            [car_type_image] => uploads/car/editcar_2.png
            [city_id] => 56
            [base_fare] => 2500 Per 2 Km
            [ride_mode] => 1
            [currency_iso_code] => FCFA
            [currency_unicode] => 0
        )

    [1] => Array
        (
            [car_type_id] => 5
            [car_type_name] => SUV
            [car_type_image] => uploads/car/editcar_5.png
            [city_id] => 56
            [base_fare] => 100 Per 4 Miles
            [ride_mode] => 1
            [currency_iso_code] => FCFA
            [currency_unicode] => 0
        )

    [2] => Array
        (
            [car_type_id] => 001
            [car_type_name] => Location
            [car_type_image] => uploads/car/rental_car.png
            [city_id] => 56
            [distance] => 
            [base_fare] => 
            [ride_mode] => 2
        )

)

city_name: Gurugram
latitude: 28.412348244745605
longitude: 77.0434146746993
-------------------------
Rental - Car Type Api: November 3, 2017, 5:17 pm
Response: Array
(
    [0] => Array
        (
            [car_type_id] => 2
            [car_type_name] => PRESTIGE
            [car_type_image] => uploads/car/editcar_2.png
            [city_id] => 56
            [base_fare] => 2500 Per 2 Km
            [ride_mode] => 1
            [currency_iso_code] => FCFA
            [currency_unicode] => 0
        )

    [1] => Array
        (
            [car_type_id] => 5
            [car_type_name] => SUV
            [car_type_image] => uploads/car/editcar_5.png
            [city_id] => 56
            [base_fare] => 100 Per 4 Miles
            [ride_mode] => 1
            [currency_iso_code] => FCFA
            [currency_unicode] => 0
        )

    [2] => Array
        (
            [car_type_id] => 001
            [car_type_name] => Location
            [car_type_image] => uploads/car/rental_car.png
            [city_id] => 56
            [distance] => 
            [base_fare] => 
            [ride_mode] => 2
        )

)

city_name: Gurugram
latitude: 28.412340577584715
longitude: 77.04342976212502
-------------------------
Rental - Car Type Api: November 3, 2017, 5:43 pm
Response: Array
(
    [0] => Array
        (
            [car_type_id] => 2
            [car_type_name] => PRESTIGE
            [car_type_image] => uploads/car/editcar_2.png
            [city_id] => 56
            [base_fare] => 2500 Per 2 Km
            [ride_mode] => 1
            [currency_iso_code] => FCFA
            [currency_unicode] => 0
        )

    [1] => Array
        (
            [car_type_id] => 5
            [car_type_name] => SUV
            [car_type_image] => uploads/car/editcar_5.png
            [city_id] => 56
            [base_fare] => 100 Per 4 Miles
            [ride_mode] => 1
            [currency_iso_code] => FCFA
            [currency_unicode] => 0
        )

    [2] => Array
        (
            [car_type_id] => 001
            [car_type_name] => Location
            [car_type_image] => uploads/car/rental_car.png
            [city_id] => 56
            [distance] => 
            [base_fare] => 
            [ride_mode] => 2
        )

)

city_name: Gurugram
latitude: 28.413173935744776
longitude: 77.041807025671
-------------------------
Rental - Car Type Api: November 3, 2017, 5:51 pm
Response: Array
(
    [0] => Array
        (
            [car_type_id] => 2
            [car_type_name] => PRESTIGE
            [car_type_image] => uploads/car/editcar_2.png
            [city_id] => 56
            [base_fare] => 2500 Per 2 Km
            [ride_mode] => 1
            [currency_iso_code] => FCFA
            [currency_unicode] => 0
        )

    [1] => Array
        (
            [car_type_id] => 5
            [car_type_name] => SUV
            [car_type_image] => uploads/car/editcar_5.png
            [city_id] => 56
            [base_fare] => 100 Per 4 Miles
            [ride_mode] => 1
            [currency_iso_code] => FCFA
            [currency_unicode] => 0
        )

    [2] => Array
        (
            [car_type_id] => 001
            [car_type_name] => Location
            [car_type_image] => uploads/car/rental_car.png
            [city_id] => 56
            [distance] => 
            [base_fare] => 
            [ride_mode] => 2
        )

)

city_name: Gurugram
latitude: 28.419694899103852
longitude: 77.0385380834341
-------------------------
Rental - Car Type Api: November 3, 2017, 6:08 pm
Response: Array
(
    [0] => Array
        (
            [car_type_id] => 2
            [car_type_name] => PRESTIGE
            [car_type_image] => uploads/car/editcar_2.png
            [city_id] => 56
            [base_fare] => 2500 Per 2 Km
            [ride_mode] => 1
            [currency_iso_code] => FCFA
            [currency_unicode] => 0
        )

    [1] => Array
        (
            [car_type_id] => 5
            [car_type_name] => SUV
            [car_type_image] => uploads/car/editcar_5.png
            [city_id] => 56
            [base_fare] => 100 Per 4 Miles
            [ride_mode] => 1
            [currency_iso_code] => FCFA
            [currency_unicode] => 0
        )

    [2] => Array
        (
            [car_type_id] => 001
            [car_type_name] => Location
            [car_type_image] => uploads/car/rental_car.png
            [city_id] => 56
            [distance] => 
            [base_fare] => 
            [ride_mode] => 2
        )

)

city_name: Gurugram
latitude: 28.41234677029162
longitude: 77.04341635107994
-------------------------
Rental - Car Type Api: November 3, 2017, 7:08 pm
Response: Array
(
    [0] => Array
        (
            [car_type_id] => 2
            [car_type_name] => PRESTIGE
            [car_type_image] => uploads/car/editcar_2.png
            [city_id] => 56
            [base_fare] => 2500 Per 2 Km
            [ride_mode] => 1
            [currency_iso_code] => FCFA
            [currency_unicode] => 0
        )

    [1] => Array
        (
            [car_type_id] => 5
            [car_type_name] => SUV
            [car_type_image] => uploads/car/editcar_5.png
            [city_id] => 56
            [base_fare] => 100 Per 4 Miles
            [ride_mode] => 1
            [currency_iso_code] => FCFA
            [currency_unicode] => 0
        )

    [2] => Array
        (
            [car_type_id] => 001
            [car_type_name] => Location
            [car_type_image] => uploads/car/rental_car.png
            [city_id] => 56
            [distance] => 
            [base_fare] => 
            [ride_mode] => 2
        )

)

city_name: Gurugram
latitude: 28.41328982685915
longitude: 77.04456433653831
-------------------------
Rental - Car Type Api: November 3, 2017, 7:44 pm
Response: Array
(
    [0] => Array
        (
            [car_type_id] => 2
            [car_type_name] => PRESTIGE
            [car_type_image] => uploads/car/editcar_2.png
            [city_id] => 56
            [base_fare] => 2500 Per 2 Km
            [ride_mode] => 1
            [currency_iso_code] => FCFA
            [currency_unicode] => 0
        )

    [1] => Array
        (
            [car_type_id] => 5
            [car_type_name] => SUV
            [car_type_image] => uploads/car/editcar_5.png
            [city_id] => 56
            [base_fare] => 100 Per 4 Miles
            [ride_mode] => 1
            [currency_iso_code] => FCFA
            [currency_unicode] => 0
        )

    [2] => Array
        (
            [car_type_id] => 001
            [car_type_name] => Location
            [car_type_image] => uploads/car/rental_car.png
            [city_id] => 56
            [distance] => 
            [base_fare] => 
            [ride_mode] => 2
        )

)

city_name: Gurugram
latitude: 28.408214090051146
longitude: 77.04359605908394
-------------------------
Rental - Car Type Api: November 3, 2017, 7:46 pm
Response: Array
(
    [0] => Array
        (
            [car_type_id] => 2
            [car_type_name] => PRESTIGE
            [car_type_image] => uploads/car/editcar_2.png
            [city_id] => 56
            [base_fare] => 2500 Per 2 Km
            [ride_mode] => 1
            [currency_iso_code] => FCFA
            [currency_unicode] => 0
        )

    [1] => Array
        (
            [car_type_id] => 5
            [car_type_name] => SUV
            [car_type_image] => uploads/car/editcar_5.png
            [city_id] => 56
            [base_fare] => 100 Per 4 Miles
            [ride_mode] => 1
            [currency_iso_code] => FCFA
            [currency_unicode] => 0
        )

    [2] => Array
        (
            [car_type_id] => 001
            [car_type_name] => Location
            [car_type_image] => uploads/car/rental_car.png
            [city_id] => 56
            [distance] => 
            [base_fare] => 
            [ride_mode] => 2
        )

)

city_name: Gurugram
latitude: 28.40821320534424
longitude: 77.04359706491232
-------------------------
