Rental - Car Type Api: September 25, 2017, 2:29 pm
Response: Array
(
    [0] => Array
        (
            [car_type_id] => 2
            [car_type_name] => HATCHBACK
            [car_type_image] => uploads/car/editcar_2.png
            [city_id] => 121
            [base_fare] => 100 Per 5 Miles
            [ride_mode] => 1
            [currency_iso_code] => AUD
            [currency_unicode] => 0024
        )

    [1] => Array
        (
            [car_type_id] => 3
            [car_type_name] => LUXURY
            [car_type_image] => uploads/car/editcar_3.png
            [city_id] => 121
            [base_fare] => 100 Per 4 Miles
            [ride_mode] => 1
            [currency_iso_code] => AUD
            [currency_unicode] => 0024
        )

    [2] => Array
        (
            [car_type_id] => 4
            [car_type_name] => Mini
            [car_type_image] => uploads/car/editcar_4.png
            [city_id] => 121
            [base_fare] => 80 Per 3 Miles
            [ride_mode] => 1
            [currency_iso_code] => AUD
            [currency_unicode] => 0024
        )

)

city_name: Dakar
latitude: 14.746470231597543
longitude: -17.520087026059628
-------------------------
Rental - Car Type Api: September 25, 2017, 4:50 pm
Response: Array
(
    [0] => Array
        (
            [car_type_id] => 2
            [car_type_name] => HATCHBACK
            [car_type_image] => uploads/car/editcar_2.png
            [city_id] => 121
            [base_fare] => 100 Per 5 Miles
            [ride_mode] => 1
            [currency_iso_code] => AUD
            [currency_unicode] => 0024
        )

    [1] => Array
        (
            [car_type_id] => 3
            [car_type_name] => LUXURY
            [car_type_image] => uploads/car/editcar_3.png
            [city_id] => 121
            [base_fare] => 100 Per 4 Miles
            [ride_mode] => 1
            [currency_iso_code] => AUD
            [currency_unicode] => 0024
        )

    [2] => Array
        (
            [car_type_id] => 4
            [car_type_name] => Mini
            [car_type_image] => uploads/car/editcar_4.png
            [city_id] => 121
            [base_fare] => 80 Per 3 Miles
            [ride_mode] => 1
            [currency_iso_code] => AUD
            [currency_unicode] => 0024
        )

)

city_name: Dakar
latitude: 14.74653605082065
longitude: -17.52003338187933
-------------------------
Rental - Car Type Api: September 25, 2017, 10:13 pm
Response: Array
(
    [0] => Array
        (
            [car_type_id] => 2
            [car_type_name] => HATCHBACK
            [car_type_image] => uploads/car/editcar_2.png
            [city_id] => 121
            [base_fare] => 100 Per 5 Miles
            [ride_mode] => 1
            [currency_iso_code] => AUD
            [currency_unicode] => 0024
        )

    [1] => Array
        (
            [car_type_id] => 3
            [car_type_name] => LUXURY
            [car_type_image] => uploads/car/editcar_3.png
            [city_id] => 121
            [base_fare] => 100 Per 4 Miles
            [ride_mode] => 1
            [currency_iso_code] => AUD
            [currency_unicode] => 0024
        )

    [2] => Array
        (
            [car_type_id] => 4
            [car_type_name] => Mini
            [car_type_image] => uploads/car/editcar_4.png
            [city_id] => 121
            [base_fare] => 80 Per 3 Miles
            [ride_mode] => 1
            [currency_iso_code] => AUD
            [currency_unicode] => 0024
        )

)

city_name: Dakar
latitude: 14.746553235146544
longitude: -17.520035058259964
-------------------------
Rental - Car Type Api: September 25, 2017, 10:28 pm
Response: Array
(
    [0] => Array
        (
            [car_type_id] => 2
            [car_type_name] => HATCHBACK
            [car_type_image] => uploads/car/editcar_2.png
            [city_id] => 121
            [base_fare] => 100 Per 5 Miles
            [ride_mode] => 1
            [currency_iso_code] => AUD
            [currency_unicode] => 0024
        )

    [1] => Array
        (
            [car_type_id] => 3
            [car_type_name] => LUXURY
            [car_type_image] => uploads/car/editcar_3.png
            [city_id] => 121
            [base_fare] => 100 Per 4 Miles
            [ride_mode] => 1
            [currency_iso_code] => AUD
            [currency_unicode] => 0024
        )

    [2] => Array
        (
            [car_type_id] => 4
            [car_type_name] => Mini
            [car_type_image] => uploads/car/editcar_4.png
            [city_id] => 121
            [base_fare] => 80 Per 3 Miles
            [ride_mode] => 1
            [currency_iso_code] => AUD
            [currency_unicode] => 0024
        )

)

city_name: Dakar
latitude: 14.746552586681444
longitude: -17.520047798752785
-------------------------
Rental - Car Type Api: September 25, 2017, 10:28 pm
Response: Array
(
    [0] => Array
        (
            [car_type_id] => 2
            [car_type_name] => HATCHBACK
            [car_type_image] => uploads/car/editcar_2.png
            [city_id] => 121
            [base_fare] => 100 Per 5 Miles
            [ride_mode] => 1
            [currency_iso_code] => AUD
            [currency_unicode] => 0024
        )

    [1] => Array
        (
            [car_type_id] => 3
            [car_type_name] => LUXURY
            [car_type_image] => uploads/car/editcar_3.png
            [city_id] => 121
            [base_fare] => 100 Per 4 Miles
            [ride_mode] => 1
            [currency_iso_code] => AUD
            [currency_unicode] => 0024
        )

    [2] => Array
        (
            [car_type_id] => 4
            [car_type_name] => Mini
            [car_type_image] => uploads/car/editcar_4.png
            [city_id] => 121
            [base_fare] => 80 Per 3 Miles
            [ride_mode] => 1
            [currency_iso_code] => AUD
            [currency_unicode] => 0024
        )

)

city_name: Dakar
latitude: 14.746551613983792
longitude: -17.52003338187933
-------------------------
Rental - Car Type Api: September 25, 2017, 10:31 pm
Response: Array
(
    [0] => Array
        (
            [car_type_id] => 2
            [car_type_name] => HATCHBACK
            [car_type_image] => uploads/car/editcar_2.png
            [city_id] => 121
            [base_fare] => 100 Per 5 Miles
            [ride_mode] => 1
            [currency_iso_code] => AUD
            [currency_unicode] => 0024
        )

    [1] => Array
        (
            [car_type_id] => 3
            [car_type_name] => LUXURY
            [car_type_image] => uploads/car/editcar_3.png
            [city_id] => 121
            [base_fare] => 100 Per 4 Miles
            [ride_mode] => 1
            [currency_iso_code] => AUD
            [currency_unicode] => 0024
        )

    [2] => Array
        (
            [car_type_id] => 4
            [car_type_name] => Mini
            [car_type_image] => uploads/car/editcar_4.png
            [city_id] => 121
            [base_fare] => 80 Per 3 Miles
            [ride_mode] => 1
            [currency_iso_code] => AUD
            [currency_unicode] => 0024
        )

)

city_name: Dakar
latitude: 14.746553883611645
longitude: -17.520033717155457
-------------------------
