Rental - Car Type Api: November 4, 2017, 2:35 pm
Response: Array
(
    [0] => Array
        (
            [car_type_id] => 2
            [car_type_name] => PRESTIGE
            [car_type_image] => uploads/car/editcar_2.png
            [city_id] => 56
            [base_fare] => 2500 Per 2 Km
            [ride_mode] => 1
            [currency_iso_code] => FCFA
            [currency_unicode] => 0
        )

    [1] => Array
        (
            [car_type_id] => 5
            [car_type_name] => SUV
            [car_type_image] => uploads/car/editcar_5.png
            [city_id] => 56
            [base_fare] => 100 Per 4 Miles
            [ride_mode] => 1
            [currency_iso_code] => FCFA
            [currency_unicode] => 0
        )

    [2] => Array
        (
            [car_type_id] => 001
            [car_type_name] => Location
            [car_type_image] => uploads/car/rental_car.png
            [city_id] => 56
            [distance] => 
            [base_fare] => 
            [ride_mode] => 2
        )

)

city_name: Gurugram
latitude: 28.412348244745605
longitude: 77.0434146746993
-------------------------
Rental - Car Type Api: November 4, 2017, 2:35 pm
Response: Array
(
    [0] => Array
        (
            [car_type_id] => 2
            [car_type_name] => PRESTIGE
            [car_type_image] => uploads/car/editcar_2.png
            [city_id] => 56
            [base_fare] => 2500 Per 2 Km
            [ride_mode] => 1
            [currency_iso_code] => FCFA
            [currency_unicode] => 0
        )

    [1] => Array
        (
            [car_type_id] => 5
            [car_type_name] => SUV
            [car_type_image] => uploads/car/editcar_5.png
            [city_id] => 56
            [base_fare] => 100 Per 4 Miles
            [ride_mode] => 1
            [currency_iso_code] => FCFA
            [currency_unicode] => 0
        )

    [2] => Array
        (
            [car_type_id] => 001
            [car_type_name] => Location
            [car_type_image] => uploads/car/rental_car.png
            [city_id] => 56
            [distance] => 
            [base_fare] => 
            [ride_mode] => 2
        )

)

city_name: Gurugram
latitude: 28.412348244745605
longitude: 77.0434146746993
-------------------------
Rental - Car Type Api: November 4, 2017, 2:36 pm
Response: Array
(
    [0] => Array
        (
            [car_type_id] => 2
            [car_type_name] => PRESTIGE
            [car_type_image] => uploads/car/editcar_2.png
            [city_id] => 56
            [base_fare] => 2500 Per 2 Km
            [ride_mode] => 1
            [currency_iso_code] => FCFA
            [currency_unicode] => 0
        )

    [1] => Array
        (
            [car_type_id] => 5
            [car_type_name] => SUV
            [car_type_image] => uploads/car/editcar_5.png
            [city_id] => 56
            [base_fare] => 100 Per 4 Miles
            [ride_mode] => 1
            [currency_iso_code] => FCFA
            [currency_unicode] => 0
        )

    [2] => Array
        (
            [car_type_id] => 001
            [car_type_name] => Location
            [car_type_image] => uploads/car/rental_car.png
            [city_id] => 56
            [distance] => 
            [base_fare] => 
            [ride_mode] => 2
        )

)

city_name: Gurugram
latitude: 28.412348244745605
longitude: 77.0434146746993
-------------------------
Rental - Car Type Api: November 4, 2017, 3:09 pm
Response: Array
(
    [0] => Array
        (
            [car_type_id] => 2
            [car_type_name] => PRESTIGE
            [car_type_image] => uploads/car/editcar_2.png
            [city_id] => 56
            [base_fare] => 2500 Per 2 Km
            [ride_mode] => 1
            [currency_iso_code] => FCFA
            [currency_unicode] => 0
        )

    [1] => Array
        (
            [car_type_id] => 5
            [car_type_name] => SUV
            [car_type_image] => uploads/car/editcar_5.png
            [city_id] => 56
            [base_fare] => 100 Per 4 Miles
            [ride_mode] => 1
            [currency_iso_code] => FCFA
            [currency_unicode] => 0
        )

    [2] => Array
        (
            [car_type_id] => 001
            [car_type_name] => Location
            [car_type_image] => uploads/car/rental_car.png
            [city_id] => 56
            [distance] => 
            [base_fare] => 
            [ride_mode] => 2
        )

)

city_name: Gurugram
latitude: 28.412348244745605
longitude: 77.0434146746993
-------------------------
Rental - Car Type Api: November 4, 2017, 4:43 pm
Response: Array
(
    [0] => Array
        (
            [car_type_id] => 2
            [car_type_name] => PRESTIGE
            [car_type_image] => uploads/car/editcar_2.png
            [city_id] => 56
            [base_fare] => 2500 Per 2 Km
            [ride_mode] => 1
            [currency_iso_code] => FCFA
            [currency_unicode] => 0
        )

    [1] => Array
        (
            [car_type_id] => 5
            [car_type_name] => SUV
            [car_type_image] => uploads/car/editcar_5.png
            [city_id] => 56
            [base_fare] => 100 Per 4 Miles
            [ride_mode] => 1
            [currency_iso_code] => FCFA
            [currency_unicode] => 0
        )

    [2] => Array
        (
            [car_type_id] => 001
            [car_type_name] => Location
            [car_type_image] => uploads/car/rental_car.png
            [city_id] => 56
            [distance] => 
            [base_fare] => 
            [ride_mode] => 2
        )

)

city_name: Gurugram
latitude: 28.412348244745605
longitude: 77.0434146746993
-------------------------
Rental - Car Type Api: November 4, 2017, 4:55 pm
Response: Array
(
    [0] => Array
        (
            [car_type_id] => 2
            [car_type_name] => PRESTIGE
            [car_type_image] => uploads/car/editcar_2.png
            [city_id] => 56
            [base_fare] => 2500 Per 2 Km
            [ride_mode] => 1
            [currency_iso_code] => FCFA
            [currency_unicode] => 0
        )

    [1] => Array
        (
            [car_type_id] => 5
            [car_type_name] => SUV
            [car_type_image] => uploads/car/editcar_5.png
            [city_id] => 56
            [base_fare] => 100 Per 4 Miles
            [ride_mode] => 1
            [currency_iso_code] => FCFA
            [currency_unicode] => 0
        )

    [2] => Array
        (
            [car_type_id] => 001
            [car_type_name] => Location
            [car_type_image] => uploads/car/rental_car.png
            [city_id] => 56
            [distance] => 
            [base_fare] => 
            [ride_mode] => 2
        )

)

city_name: Gurugram
latitude: 28.412334679768303
longitude: 77.04342976212502
-------------------------
Rental - Car Type Api: November 4, 2017, 5:10 pm
Response: Array
(
    [0] => Array
        (
            [car_type_id] => 2
            [car_type_name] => PRESTIGE
            [car_type_image] => uploads/car/editcar_2.png
            [city_id] => 56
            [base_fare] => 2500 Per 2 Km
            [ride_mode] => 1
            [currency_iso_code] => FCFA
            [currency_unicode] => 0
        )

    [1] => Array
        (
            [car_type_id] => 5
            [car_type_name] => SUV
            [car_type_image] => uploads/car/editcar_5.png
            [city_id] => 56
            [base_fare] => 100 Per 4 Miles
            [ride_mode] => 1
            [currency_iso_code] => FCFA
            [currency_unicode] => 0
        )

    [2] => Array
        (
            [car_type_id] => 001
            [car_type_name] => Location
            [car_type_image] => uploads/car/rental_car.png
            [city_id] => 56
            [distance] => 
            [base_fare] => 
            [ride_mode] => 2
        )

)

city_name: Gurugram
latitude: 28.41233851334903
longitude: 77.04342037439346
-------------------------
Rental - Car Type Api: November 4, 2017, 5:27 pm
Response: Array
(
    [0] => Array
        (
            [car_type_id] => 2
            [car_type_name] => PRESTIGE
            [car_type_image] => uploads/car/editcar_2.png
            [city_id] => 56
            [base_fare] => 2500 Per 2 Km
            [ride_mode] => 1
            [currency_iso_code] => FCFA
            [currency_unicode] => 0
        )

    [1] => Array
        (
            [car_type_id] => 5
            [car_type_name] => SUV
            [car_type_image] => uploads/car/editcar_5.png
            [city_id] => 56
            [base_fare] => 100 Per 4 Miles
            [ride_mode] => 1
            [currency_iso_code] => FCFA
            [currency_unicode] => 0
        )

    [2] => Array
        (
            [car_type_id] => 001
            [car_type_name] => Location
            [car_type_image] => uploads/car/rental_car.png
            [city_id] => 56
            [distance] => 
            [base_fare] => 
            [ride_mode] => 2
        )

)

city_name: Gurugram
latitude: 28.412348244745605
longitude: 77.0434146746993
-------------------------
Rental - Car Type Api: November 4, 2017, 5:44 pm
Response: Array
(
    [0] => Array
        (
            [car_type_id] => 2
            [car_type_name] => PRESTIGE
            [car_type_image] => uploads/car/editcar_2.png
            [city_id] => 56
            [base_fare] => 2500 Per 2 Km
            [ride_mode] => 1
            [currency_iso_code] => FCFA
            [currency_unicode] => 0
        )

    [1] => Array
        (
            [car_type_id] => 5
            [car_type_name] => SUV
            [car_type_image] => uploads/car/editcar_5.png
            [city_id] => 56
            [base_fare] => 100 Per 4 Miles
            [ride_mode] => 1
            [currency_iso_code] => FCFA
            [currency_unicode] => 0
        )

    [2] => Array
        (
            [car_type_id] => 001
            [car_type_name] => Location
            [car_type_image] => uploads/car/rental_car.png
            [city_id] => 56
            [distance] => 
            [base_fare] => 
            [ride_mode] => 2
        )

)

city_name: Gurugram
latitude: 28.412348244745605
longitude: 77.0434146746993
-------------------------
Rental - Car Type Api: November 4, 2017, 5:52 pm
Response: Array
(
    [0] => Array
        (
            [car_type_id] => 2
            [car_type_name] => PRESTIGE
            [car_type_image] => uploads/car/editcar_2.png
            [city_id] => 56
            [base_fare] => 2500 Per 2 Km
            [ride_mode] => 1
            [currency_iso_code] => FCFA
            [currency_unicode] => 0
        )

    [1] => Array
        (
            [car_type_id] => 5
            [car_type_name] => SUV
            [car_type_image] => uploads/car/editcar_5.png
            [city_id] => 56
            [base_fare] => 100 Per 4 Miles
            [ride_mode] => 1
            [currency_iso_code] => FCFA
            [currency_unicode] => 0
        )

    [2] => Array
        (
            [car_type_id] => 001
            [car_type_name] => Location
            [car_type_image] => uploads/car/rental_car.png
            [city_id] => 56
            [distance] => 
            [base_fare] => 
            [ride_mode] => 2
        )

)

city_name: Gurugram
latitude: 28.412341462257167
longitude: 77.04342238605022
-------------------------
Rental - Car Type Api: November 4, 2017, 6:03 pm
Response: Array
(
    [0] => Array
        (
            [car_type_id] => 2
            [car_type_name] => PRESTIGE
            [car_type_image] => uploads/car/editcar_2.png
            [city_id] => 56
            [base_fare] => 2500 Per 2 Km
            [ride_mode] => 1
            [currency_iso_code] => FCFA
            [currency_unicode] => 0
        )

    [1] => Array
        (
            [car_type_id] => 5
            [car_type_name] => SUV
            [car_type_image] => uploads/car/editcar_5.png
            [city_id] => 56
            [base_fare] => 100 Per 4 Miles
            [ride_mode] => 1
            [currency_iso_code] => FCFA
            [currency_unicode] => 0
        )

    [2] => Array
        (
            [car_type_id] => 001
            [car_type_name] => Location
            [car_type_image] => uploads/car/rental_car.png
            [city_id] => 56
            [distance] => 
            [base_fare] => 
            [ride_mode] => 2
        )

)

city_name: Gurugram
latitude: 28.412348244745605
longitude: 77.0434146746993
-------------------------
Rental - Car Type Api: November 4, 2017, 6:52 pm
Response: Array
(
    [0] => Array
        (
            [car_type_id] => 2
            [car_type_name] => PRESTIGE
            [car_type_image] => uploads/car/editcar_2.png
            [city_id] => 56
            [base_fare] => 2500 Per 2 Km
            [ride_mode] => 1
            [currency_iso_code] => FCFA
            [currency_unicode] => 0
        )

    [1] => Array
        (
            [car_type_id] => 5
            [car_type_name] => SUV
            [car_type_image] => uploads/car/editcar_5.png
            [city_id] => 56
            [base_fare] => 100 Per 4 Miles
            [ride_mode] => 1
            [currency_iso_code] => FCFA
            [currency_unicode] => 0
        )

    [2] => Array
        (
            [car_type_id] => 001
            [car_type_name] => Location
            [car_type_image] => uploads/car/rental_car.png
            [city_id] => 56
            [distance] => 
            [base_fare] => 
            [ride_mode] => 2
        )

)

city_name: Gurugram
latitude: 28.412348244745605
longitude: 77.0434146746993
-------------------------
Rental - Car Type Api: November 4, 2017, 7:32 pm
Response: Array
(
    [0] => Array
        (
            [car_type_id] => 2
            [car_type_name] => PRESTIGE
            [car_type_image] => uploads/car/editcar_2.png
            [city_id] => 56
            [base_fare] => 2500 Per 2 Km
            [ride_mode] => 1
            [currency_iso_code] => FCFA
            [currency_unicode] => 0
        )

    [1] => Array
        (
            [car_type_id] => 5
            [car_type_name] => SUV
            [car_type_image] => uploads/car/editcar_5.png
            [city_id] => 56
            [base_fare] => 100 Per 4 Miles
            [ride_mode] => 1
            [currency_iso_code] => FCFA
            [currency_unicode] => 0
        )

    [2] => Array
        (
            [car_type_id] => 001
            [car_type_name] => Location
            [car_type_image] => uploads/car/rental_car.png
            [city_id] => 56
            [distance] => 
            [base_fare] => 
            [ride_mode] => 2
        )

)

city_name: Gurugram
latitude: 28.412348244745605
longitude: 77.0434146746993
-------------------------
