car by city api -: September 21, 2017, 8:54 am
Response: {"result":1,"msg":"0","details":{"ride_id":"3","user_id":"1","coupon_code":"","pickup_lat":"28.41221878760878","pickup_long":"77.04323463141918","pickup_location":"68, Plaza St, Block S, Uppal Southend, Sector 49, Gurugram, Haryana 122018, India","drop_lat":"28.4592693","drop_long":"77.0724192","drop_location":"Huda Metro Station","ride_date":"Thursday, Sep 21","ride_time":"08:54:02","last_time_stamp":"08:54:02 AM","ride_image":"https:maps.googleapis.com\/maps\/api\/staticmap?center=&zoom=12&size=200x200&maptype=roadmap&markers=color:green|label:S|28.41221878760878,77.04323463141918&markers=color:red|label:D|28.4592693,77.0724192&key=AIzaSyAIFe17P91Mfez3T6cqk7hfDSyvMO812Z4","later_date":"","later_time":"","driver_id":"0","car_type_id":"3","ride_type":"1","pem_file":"1","ride_status":"1","payment_status":"0","reason_id":"0","payment_option_id":"1","card_id":"0","ride_platform":"1","ride_admin_status":"1","date":"2017-09-21"}}
drop_lat: 28.4592693
drop_long: 77.0724192
drop_location: Huda Metro Station
car_type_id:3
user_id:1
coupon_code :
pickup_lat : 28.41221878760878
pickup_long : 77.04323463141918
pickup_location :68, Plaza St, Block S, Uppal Southend, Sector 49, Gurugram, Haryana 122018, India
payment_option_id :1
card_id :
pem_file :1
-------------------------
car by city api -: September 21, 2017, 9:06 am
Response: {"result":1,"msg":[{"car_type_id":"2","car_type_name":"HATCHBACK","car_name_arabic":"","car_type_name_french":"HATCHBACK","car_type_image":"uploads\/car\/editcar_2.png","cartype_image_size":"webstatic\/img\/fleet-image\/prime-play.png","ride_mode":"1","car_admin_status":"1","city_id":"56"},{"car_type_id":"3","car_type_name":"LUXURY","car_name_arabic":"","car_type_name_french":"LUXURY","car_type_image":"uploads\/car\/editcar_3.png","cartype_image_size":"webstatic\/img\/fleet-image\/lux.png","ride_mode":"1","car_admin_status":"1","city_id":"56"},{"car_type_id":"4","car_type_name":"Mini","car_name_arabic":"","car_type_name_french":"Mini","car_type_image":"uploads\/car\/editcar_4.png","cartype_image_size":"webstatic\/img\/fleet-image\/mini.png","ride_mode":"1","car_admin_status":"1","city_id":"56"}]}
city_id: 56
-------------------------
car by city api -: September 21, 2017, 10:02 am
Response: {"result":1,"msg":[{"car_type_id":"2","car_type_name":"HATCHBACK","car_name_arabic":"","car_type_name_french":"HATCHBACK","car_type_image":"uploads\/car\/editcar_2.png","cartype_image_size":"webstatic\/img\/fleet-image\/prime-play.png","ride_mode":"1","car_admin_status":"1","city_id":"56"},{"car_type_id":"3","car_type_name":"LUXURY","car_name_arabic":"","car_type_name_french":"LUXURY","car_type_image":"uploads\/car\/editcar_3.png","cartype_image_size":"webstatic\/img\/fleet-image\/lux.png","ride_mode":"1","car_admin_status":"1","city_id":"56"},{"car_type_id":"4","car_type_name":"Mini","car_name_arabic":"","car_type_name_french":"Mini","car_type_image":"uploads\/car\/editcar_4.png","cartype_image_size":"webstatic\/img\/fleet-image\/mini.png","ride_mode":"1","car_admin_status":"1","city_id":"56"}]}
city_id: 56
-------------------------
car by city api -: September 21, 2017, 12:20 pm
Response: {"result":0,"msg":"No Driver Online"}
drop_lat: 28.4592693
drop_long: 77.0724192
drop_location: Huda Metro Station
car_type_id:2
user_id:1
coupon_code :
pickup_lat : 28.412211120438524
pickup_long : 77.04324703663588
pickup_location :68, Plaza St, Block S, Uppal Southend, Sector 49, Gurugram, Haryana 122018, India
payment_option_id :1
card_id :
pem_file :1
-------------------------
Driver App - Login driver Api: September 21, 2017, 12:21 pm
Response: Array
(
    [driver_id] => 1
    [company_id] => 0
    [commission] => 5
    [driver_name] => mani
    [driver_email] => man@gmail.com
    [driver_phone] => 8285469066
    [driver_image] => 
    [driver_password] => 123456
    [driver_token] => HVU25EmGpQere4mc
    [total_payment_eraned] => 403.75
    [company_payment] => 21.25
    [driver_payment] => 
    [device_id] => cEOwcIjMBig:APA91bHcm09a0_rqDL7fIAnOwPXov7RDh1wnjM83xUiWLr1bylq-P7vilPXjLsCxwRg7N1q1pYiFeuo1KcxmVY0P2NL1hCFMuvrX4v3Lym7tTgZClPCR_VNrtpSU18ZT_MqxBeHkp26H
    [flag] => 2
    [rating] => 4
    [car_type_id] => 3
    [car_model_id] => 31
    [car_number] => qwert
    [city_id] => 56
    [register_date] => Wednesday, Sep 20
    [license] => 
    [license_expire] => 
    [rc] => 
    [rc_expire] => 
    [insurance] => 
    [insurance_expire] => 
    [other_docs] => 
    [driver_bank_name] => 
    [driver_account_number] => 
    [total_card_payment] => 0.00
    [total_cash_payment] => 0.00
    [amount_transfer_pending] => 0.00
    [current_lat] => 28.4122189
    [current_long] => 77.0432347
    [current_location] => ----
    [last_update] => 08:54
    [last_update_date] => Thursday, Sep 21, 2017
    [completed_rides] => 2
    [reject_rides] => 0
    [cancelled_rides] => 0
    [login_logout] => 1
    [busy] => 0
    [online_offline] => 1
    [detail_status] => 2
    [payment_transfer] => 0
    [verification_date] => 
    [verification_status] => 1
    [unique_number] => 
    [driver_signup_date] => 2017-09-20
    [driver_status_image] => http://www.apporiotaxi.com/superadminpanel/images/icons8-Error-80.png
    [driver_status_message] => your document id in under process, You will be notified very soon
    [total_document_need] => 3
    [driver_admin_status] => 1
    [verfiy_document] => 0
    [city_name] => Gurugram
    [city_latitude] => 
    [city_longitude] => 
    [currency] => 
    [currency_iso_code] => AUD
    [currency_unicode] => 0024
    [distance] => Miles
    [city_name_arabic] => 
    [city_name_french] => 
    [city_admin_status] => 1
    [car_type_name] => LUXURY
    [car_model_name] => Nano
)

driver_email_phone: 8285469066
driver_password: 123456
-------------------------
car by city api -: September 21, 2017, 12:23 pm
Response: {"result":1,"msg":"0.002137523030576","details":{"ride_id":"4","user_id":"1","coupon_code":"","pickup_lat":"28.412211120438524","pickup_long":"77.04324703663588","pickup_location":"68, Plaza St, Block S, Uppal Southend, Sector 49, Gurugram, Haryana 122018, India","drop_lat":"28.4592693","drop_long":"77.0724192","drop_location":"Huda Metro Station","ride_date":"Thursday, Sep 21","ride_time":"12:22:28","last_time_stamp":"12:22:33 PM","ride_image":"https:maps.googleapis.com\/maps\/api\/staticmap?center=&zoom=12&size=200x200&maptype=roadmap&markers=color:green|label:S|28.412211120438524,77.04324703663588&markers=color:red|label:D|28.4592693,77.0724192&key=AIzaSyAIFe17P91Mfez3T6cqk7hfDSyvMO812Z4","later_date":"","later_time":"","driver_id":"1","car_type_id":"3","ride_type":"1","pem_file":"1","ride_status":"3","payment_status":"0","reason_id":"0","payment_option_id":"1","card_id":"0","ride_platform":"1","ride_admin_status":"1","date":"2017-09-21"}}
drop_lat: 28.4592693
drop_long: 77.0724192
drop_location: Huda Metro Station
car_type_id:3
user_id:1
coupon_code :
pickup_lat : 28.412211120438524
pickup_long : 77.04324703663588
pickup_location :68, Plaza St, Block S, Uppal Southend, Sector 49, Gurugram, Haryana 122018, India
payment_option_id :1
card_id :
pem_file :1
-------------------------
Ride Accept api -: September 21, 2017, 12:23 pm
Response: {"result":1,"msg":"Booking Accepted!!","details":{"ride_id":"4","user_id":"1","coupon_code":"","pickup_lat":"28.412211120438524","pickup_long":"77.04324703663588","pickup_location":"68, Plaza St, Block S, Uppal Southend, Sector 49, Gurugram, Haryana 122018, India","drop_lat":"28.4592693","drop_long":"77.0724192","drop_location":"Huda Metro Station","ride_date":"Thursday, Sep 21","ride_time":"12:22:28","last_time_stamp":"12:22:33 PM","ride_image":"https:maps.googleapis.com\/maps\/api\/staticmap?center=&zoom=12&size=200x200&maptype=roadmap&markers=color:green|label:S|28.412211120438524,77.04324703663588&markers=color:red|label:D|28.4592693,77.0724192&key=AIzaSyAIFe17P91Mfez3T6cqk7hfDSyvMO812Z4","later_date":"","later_time":"","driver_id":"1","car_type_id":"3","ride_type":"1","pem_file":"1","ride_status":"3","payment_status":"0","reason_id":"0","payment_option_id":"1","card_id":"0","ride_platform":"1","ride_admin_status":"1","date":"2017-09-21","user_type":"1","user_name":"manish .","user_email":"mky@gmail.com","user_phone":"+918285469069","user_password":"123456","user_image":"","device_id":"d3xj2HP7dAM:APA91bEYQ5gAe4p5vf9W7EmLI14t7qq4jRTp49-YR_DnD5xTt2gGbJWHHLf1DdvD7hDUBYxAlkSsEAROxSGbX1VZffDvB0h7LxuNBMPGG8mGFeKK1sk5jTvMNaPDqzHMjYPpmBslfj8l","flag":"2","wallet_money":"0","register_date":"Wednesday, Sep 20","referral_code":"","free_rides":"0","referral_code_send":"0","phone_verified":"0","email_verified":"0","password_created":"0","facebook_id":"","facebook_mail":"","facebook_image":"","facebook_firstname":"","facebook_lastname":"","google_id":"","google_name":"","google_mail":"","google_image":"","google_token":"","facebook_token":"","token_created":"0","login_logout":"1","rating":"4","user_delete":"0","unique_number":"","user_signup_type":"1","user_signup_date":"2017-09-20","status":"1","car_type_name":"LUXURY","car_name_arabic":"","car_type_name_french":"LUXURY","car_type_image":"uploads\/car\/editcar_3.png","cartype_image_size":"webstatic\/img\/fleet-image\/lux.png","ride_mode":"1","car_admin_status":"1","company_id":"0","commission":"5","driver_name":"mani","driver_email":"man@gmail.com","driver_phone":"8285469066","driver_image":"","driver_password":"123456","driver_token":"HVU25EmGpQere4mc","total_payment_eraned":"403.75","company_payment":"21.25","driver_payment":"","car_model_id":"31","car_number":"qwert","city_id":"56","license":"","license_expire":"","rc":"","rc_expire":"","insurance":"","insurance_expire":"","other_docs":"","driver_bank_name":"","driver_account_number":"","total_card_payment":"0.00","total_cash_payment":"0.00","amount_transfer_pending":"0.00","current_lat":"28.4122003","current_long":"77.0432651","current_location":"----","last_update":"12:22","last_update_date":"Thursday, Sep 21, 2017","completed_rides":"2","reject_rides":"0","cancelled_rides":"0","busy":"1","online_offline":"1","detail_status":"2","payment_transfer":"0","verification_date":"","verification_status":"1","driver_signup_date":"2017-09-20","driver_status_image":"http:\/\/www.apporiotaxi.com\/superadminpanel\/images\/icons8-Error-80.png","driver_status_message":"your document id in under process, You will be notified very soon","total_document_need":"3","driver_admin_status":"1","verfiy_document":"0"}}
ride_id: 4
driver_id: 1
driver_token: HVU25EmGpQere4mc
-------------------------
ride start to road  Api - : September 21, 2017, 12:23 pm
ride_id :4
driver_id: 1
begin_lat: 28.4122067
begin_long: 77.0432547
driver_token: HVU25EmGpQere4mc
-------------------------
ride end Api - : September 21, 2017, 12:23 pm
ride_id: 4
driver_id: 1
end_lat: 28.4122068
end_long: 77.0432544
meter_distance: 0.0
lat_long: 
-------------------------
