car by city api -: November 3, 2017, 12:47 pm
Response: {"result":1,"msg":[{"car_type_id":"2","car_type_name":"PRESTIGE","car_name_arabic":"","car_type_name_french":"HATCHBACK","car_type_image":"uploads\/car\/editcar_2.png","cartype_image_size":"webstatic\/img\/fleet-image\/prime-play.png","ride_mode":"1","car_admin_status":"1","city_id":"56"},{"car_type_id":"5","car_type_name":"SUV","car_name_arabic":"","car_type_name_french":"","car_type_image":"uploads\/car\/editcar_5.png","cartype_image_size":"5848","ride_mode":"1","car_admin_status":"1","city_id":"56"}]}
city_id: 56
-------------------------
car by city api -: November 3, 2017, 1:27 pm
Response: {"result":1,"msg":"0.45779809135639","details":{"ride_id":"18","user_id":"1","coupon_code":"","pickup_lat":"28.408214090051146","pickup_long":"77.04359605908394","pickup_location":"C-122, Sohna - Gurgaon Rd, Tatvam Villas, Uppal Southend, Sector 49, Gurugram, Haryana 122004, India","drop_lat":"28.387419963018917","drop_long":"77.04515174031258","drop_location":"\u091f\u093f\u0915\u0932\u093f \u092e\u093e\u0930\u094d\u0917, Sector 68, Gurugram, Haryana 122101, India","ride_date":"Vendredi, 3 Novembre","ride_time":"13:27:18","last_time_stamp":"01:27:18 PM","ride_image":"https:maps.googleapis.com\/maps\/api\/staticmap?center=&zoom=12&size=200x200&maptype=roadmap&markers=color:green|label:S|28.408214090051146,77.04359605908394&markers=color:red|label:D|28.387419963018917,77.04515174031258&key=AIzaSyAIFe17P91Mfez3T6cqk7hfDSyvMO812Z4","later_date":"","later_time":"","driver_id":"0","car_type_id":"2","ride_type":"1","pem_file":"1","ride_status":"1","payment_status":"0","reason_id":"0","payment_option_id":"1","card_id":"0","ride_platform":"1","ride_admin_status":"1","date":"2017-11-03"}}
drop_lat: 28.387419963018917
drop_long: 77.04515174031258
drop_location: टिकलि मार्ग, Sector 68, Gurugram, Haryana 122101, India
car_type_id:2
user_id:1
coupon_code :
pickup_lat : 28.408214090051146
pickup_long : 77.04359605908394
pickup_location :C-122, Sohna - Gurgaon Rd, Tatvam Villas, Uppal Southend, Sector 49, Gurugram, Haryana 122004, India
payment_option_id :1
card_id :
pem_file :1
-------------------------
Ride Accept api -: November 3, 2017, 1:27 pm
Response: {"result":1,"msg":"Booking Accepted!!","details":{"ride_id":"18","user_id":"1","coupon_code":"","pickup_lat":"28.408214090051146","pickup_long":"77.04359605908394","pickup_location":"C-122, Sohna - Gurgaon Rd, Tatvam Villas, Uppal Southend, Sector 49, Gurugram, Haryana 122004, India","drop_lat":"28.387419963018917","drop_long":"77.04515174031258","drop_location":"\u091f\u093f\u0915\u0932\u093f \u092e\u093e\u0930\u094d\u0917, Sector 68, Gurugram, Haryana 122101, India","ride_date":"Vendredi, 3 Novembre","ride_time":"13:27:18","last_time_stamp":"01:27:26 PM","ride_image":"https:maps.googleapis.com\/maps\/api\/staticmap?center=&zoom=12&size=200x200&maptype=roadmap&markers=color:green|label:S|28.408214090051146,77.04359605908394&markers=color:red|label:D|28.387419963018917,77.04515174031258&key=AIzaSyAIFe17P91Mfez3T6cqk7hfDSyvMO812Z4","later_date":"","later_time":"","driver_id":"3","car_type_id":"2","ride_type":"1","pem_file":"1","ride_status":"3","payment_status":"0","reason_id":"0","payment_option_id":"1","card_id":"0","ride_platform":"1","ride_admin_status":"1","date":"2017-11-03","user_type":"1","user_name":"cheikh .","user_email":"ncheikha@gmail.com","user_phone":"+221786392959","user_password":"newest","user_image":"http:\/\/apporioinfolabs.com\/Izycab\/izycab\/uploads\/1509606865458.jpg","device_id":"cxlFafB9eiA:APA91bHTTzJMtqDv-WPqfHY927jstQ48QQxwwbjxaM6U-z36Jl3ZoWpwGwYlXeSvqDluoW1YbD_CpH-PeDkcmamqQUazCBo2zS25kUAFLQSn21z5imFR7hi-SJiXpdCSwQweNF7dvffB","flag":"2","wallet_money":"0","register_date":"Wednesday, Nov 1","referral_code":"","free_rides":"0","referral_code_send":"0","phone_verified":"0","email_verified":"0","password_created":"0","facebook_id":"","facebook_mail":"","facebook_image":"","facebook_firstname":"","facebook_lastname":"","google_id":"","google_name":"","google_mail":"","google_image":"","google_token":"","facebook_token":"","token_created":"0","login_logout":"1","rating":"3.5","user_delete":"0","unique_number":"","user_signup_type":"1","user_signup_date":"2017-11-01","status":"1","car_type_name":"PRESTIGE","car_name_arabic":"","car_type_name_french":"HATCHBACK","car_type_image":"uploads\/car\/editcar_2.png","cartype_image_size":"webstatic\/img\/fleet-image\/prime-play.png","ride_mode":"1","car_admin_status":"1","company_id":"0","commission":"0","driver_name":"abdoul","driver_email":"bonfoh@gmail.com","driver_phone":"773581566","driver_image":"uploads\/driver\/1509634794driver_3.jpg","driver_password":"newest","driver_token":"kvMOrJLnU2S3HJvM","total_payment_eraned":"6250","company_payment":"0","driver_payment":"","car_model_id":"3","car_number":"DK6363BC","city_id":"56","license":"","license_expire":"","rc":"","rc_expire":"","insurance":"","insurance_expire":"","other_docs":"","driver_bank_name":"","driver_account_number":"","total_card_payment":"0.00","total_cash_payment":"0.00","amount_transfer_pending":"0.00","current_lat":"28.4123291","current_long":"77.0434408","current_location":"----","last_update":"13:27","last_update_date":"Friday, Nov 3, 2017","completed_rides":"3","reject_rides":"3","cancelled_rides":"1","busy":"1","online_offline":"1","detail_status":"2","payment_transfer":"0","verification_date":"","verification_status":"1","driver_signup_date":"2017-11-01","driver_status_image":"http:\/\/www.apporiotaxi.com\/superadminpanel\/images\/icons8-Error-80.png","driver_status_message":"your document id in under process, You will be notified very soon","total_document_need":"1","driver_admin_status":"1","verfiy_document":"0"}}
ride_id: 18
driver_id: 3
driver_token: kvMOrJLnU2S3HJvM
-------------------------
ride start to road  Api - : November 3, 2017, 1:28 pm
ride_id :18
driver_id: 3
begin_lat: 28.412295
begin_long: 77.0434327
driver_token: kvMOrJLnU2S3HJvM
-------------------------
ride end Api - : November 3, 2017, 1:28 pm
ride_id: 18
driver_id: 3
end_lat: 28.412282
end_long: 77.0434209
meter_distance: 0.0
lat_long: 
-------------------------
car by city api -: November 3, 2017, 1:32 pm
Response: {"result":1,"msg":[{"car_type_id":"2","car_type_name":"PRESTIGE","car_name_arabic":"","car_type_name_french":"HATCHBACK","car_type_image":"uploads\/car\/editcar_2.png","cartype_image_size":"webstatic\/img\/fleet-image\/prime-play.png","ride_mode":"1","car_admin_status":"1","city_id":"56"},{"car_type_id":"5","car_type_name":"SUV","car_name_arabic":"","car_type_name_french":"","car_type_image":"uploads\/car\/editcar_5.png","cartype_image_size":"5848","ride_mode":"1","car_admin_status":"1","city_id":"56"}]}
city_id: 56
-------------------------
car by city api -: November 3, 2017, 1:40 pm
Response: {"result":1,"msg":"0.45870975960135","details":{"ride_id":"19","user_id":"1","coupon_code":"","pickup_lat":"28.408214090051146","pickup_long":"77.04359605908394","pickup_location":"C-122, Sohna - Gurgaon Rd, Tatvam Villas, Uppal Southend, Sector 49, Gurugram, Haryana 122004, India","drop_lat":"28.387419963018917","drop_long":"77.04515174031258","drop_location":"\u091f\u093f\u0915\u0932\u093f \u092e\u093e\u0930\u094d\u0917, Sector 68, Gurugram, Haryana 122101, India","ride_date":"Vendredi, 3 Novembre","ride_time":"13:40:00","last_time_stamp":"01:40:00 PM","ride_image":"https:maps.googleapis.com\/maps\/api\/staticmap?center=&zoom=12&size=200x200&maptype=roadmap&markers=color:green|label:S|28.408214090051146,77.04359605908394&markers=color:red|label:D|28.387419963018917,77.04515174031258&key=AIzaSyAIFe17P91Mfez3T6cqk7hfDSyvMO812Z4","later_date":"","later_time":"","driver_id":"0","car_type_id":"2","ride_type":"1","pem_file":"1","ride_status":"1","payment_status":"0","reason_id":"0","payment_option_id":"1","card_id":"0","ride_platform":"1","ride_admin_status":"1","date":"2017-11-03"}}
drop_lat: 28.387419963018917
drop_long: 77.04515174031258
drop_location: टिकलि मार्ग, Sector 68, Gurugram, Haryana 122101, India
car_type_id:2
user_id:1
coupon_code :
pickup_lat : 28.408214090051146
pickup_long : 77.04359605908394
pickup_location :C-122, Sohna - Gurgaon Rd, Tatvam Villas, Uppal Southend, Sector 49, Gurugram, Haryana 122004, India
payment_option_id :1
card_id :
pem_file :1
-------------------------
car by city api -: November 3, 2017, 2:40 pm
Response: {"result":1,"msg":"0.11075829151418","details":{"ride_id":"20","user_id":"1","coupon_code":"","pickup_lat":"28.412770232628368","pickup_long":"77.0444543659687","pickup_location":"322B, Sohna Rd, Sector 49, Gurugram, Haryana 122018, India","drop_lat":"28.395504218118827","drop_long":"77.05988444387913","drop_location":"IREO Uptown Connectivity Rd, Badshahpur, Sector 66, Gurugram, Haryana 122102, India","ride_date":"Vendredi, 3 Novembre","ride_time":"14:40:29","last_time_stamp":"02:40:29 PM","ride_image":"https:maps.googleapis.com\/maps\/api\/staticmap?center=&zoom=12&size=200x200&maptype=roadmap&markers=color:green|label:S|28.412770232628368,77.0444543659687&markers=color:red|label:D|28.395504218118827,77.05988444387913&key=AIzaSyAIFe17P91Mfez3T6cqk7hfDSyvMO812Z4","later_date":"","later_time":"","driver_id":"0","car_type_id":"2","ride_type":"1","pem_file":"1","ride_status":"1","payment_status":"0","reason_id":"0","payment_option_id":"1","card_id":"0","ride_platform":"1","ride_admin_status":"1","date":"2017-11-03"}}
drop_lat: 28.395504218118827
drop_long: 77.05988444387913
drop_location: IREO Uptown Connectivity Rd, Badshahpur, Sector 66, Gurugram, Haryana 122102, India
car_type_id:2
user_id:1
coupon_code :
pickup_lat : 28.412770232628368
pickup_long : 77.0444543659687
pickup_location :322B, Sohna Rd, Sector 49, Gurugram, Haryana 122018, India
payment_option_id :1
card_id :
pem_file :1
-------------------------
Ride Accept api -: November 3, 2017, 2:40 pm
Response: {"result":1,"msg":"Booking Accepted!!","details":{"ride_id":"20","user_id":"1","coupon_code":"","pickup_lat":"28.412770232628368","pickup_long":"77.0444543659687","pickup_location":"322B, Sohna Rd, Sector 49, Gurugram, Haryana 122018, India","drop_lat":"28.395504218118827","drop_long":"77.05988444387913","drop_location":"IREO Uptown Connectivity Rd, Badshahpur, Sector 66, Gurugram, Haryana 122102, India","ride_date":"Vendredi, 3 Novembre","ride_time":"14:40:29","last_time_stamp":"02:40:40 PM","ride_image":"https:maps.googleapis.com\/maps\/api\/staticmap?center=&zoom=12&size=200x200&maptype=roadmap&markers=color:green|label:S|28.412770232628368,77.0444543659687&markers=color:red|label:D|28.395504218118827,77.05988444387913&key=AIzaSyAIFe17P91Mfez3T6cqk7hfDSyvMO812Z4","later_date":"","later_time":"","driver_id":"3","car_type_id":"2","ride_type":"1","pem_file":"1","ride_status":"3","payment_status":"0","reason_id":"0","payment_option_id":"1","card_id":"0","ride_platform":"1","ride_admin_status":"1","date":"2017-11-03","user_type":"1","user_name":"cheikh .","user_email":"ncheikha@gmail.com","user_phone":"+221786392959","user_password":"newest","user_image":"http:\/\/apporioinfolabs.com\/Izycab\/izycab\/uploads\/1509606865458.jpg","device_id":"cxlFafB9eiA:APA91bHTTzJMtqDv-WPqfHY927jstQ48QQxwwbjxaM6U-z36Jl3ZoWpwGwYlXeSvqDluoW1YbD_CpH-PeDkcmamqQUazCBo2zS25kUAFLQSn21z5imFR7hi-SJiXpdCSwQweNF7dvffB","flag":"2","wallet_money":"0","register_date":"Wednesday, Nov 1","referral_code":"","free_rides":"0","referral_code_send":"0","phone_verified":"0","email_verified":"0","password_created":"0","facebook_id":"","facebook_mail":"","facebook_image":"","facebook_firstname":"","facebook_lastname":"","google_id":"","google_name":"","google_mail":"","google_image":"","google_token":"","facebook_token":"","token_created":"0","login_logout":"1","rating":"3.1666666666667","user_delete":"0","unique_number":"","user_signup_type":"1","user_signup_date":"2017-11-01","status":"1","car_type_name":"PRESTIGE","car_name_arabic":"","car_type_name_french":"HATCHBACK","car_type_image":"uploads\/car\/editcar_2.png","cartype_image_size":"webstatic\/img\/fleet-image\/prime-play.png","ride_mode":"1","car_admin_status":"1","company_id":"0","commission":"0","driver_name":"abdoul","driver_email":"bonfoh@gmail.com","driver_phone":"773581566","driver_image":"uploads\/driver\/1509634794driver_3.jpg","driver_password":"newest","driver_token":"kvMOrJLnU2S3HJvM","total_payment_eraned":"8750","company_payment":"0","driver_payment":"","car_model_id":"3","car_number":"DK6363BC","city_id":"56","license":"","license_expire":"","rc":"","rc_expire":"","insurance":"","insurance_expire":"","other_docs":"","driver_bank_name":"","driver_account_number":"","total_card_payment":"0.00","total_cash_payment":"0.00","amount_transfer_pending":"0.00","current_lat":"28.4123322","current_long":"77.0434372","current_location":"----","last_update":"14:40","last_update_date":"Friday, Nov 3, 2017","completed_rides":"4","reject_rides":"3","cancelled_rides":"1","busy":"1","online_offline":"1","detail_status":"2","payment_transfer":"0","verification_date":"","verification_status":"1","driver_signup_date":"2017-11-01","driver_status_image":"http:\/\/www.apporiotaxi.com\/superadminpanel\/images\/icons8-Error-80.png","driver_status_message":"your document id in under process, You will be notified very soon","total_document_need":"1","driver_admin_status":"1","verfiy_document":"0"}}
ride_id: 20
driver_id: 3
driver_token: kvMOrJLnU2S3HJvM
-------------------------
car by city api -: November 3, 2017, 2:42 pm
Response: {"result":1,"msg":"0.11288150060376","details":{"ride_id":"21","user_id":"1","coupon_code":"","pickup_lat":"28.412770232628368","pickup_long":"77.0444543659687","pickup_location":"322B, Sohna Rd, Sector 49, Gurugram, Haryana 122018, India","drop_lat":"28.395504218118827","drop_long":"77.05988444387913","drop_location":"IREO Uptown Connectivity Rd, Badshahpur, Sector 66, Gurugram, Haryana 122102, India","ride_date":"Vendredi, 3 Novembre","ride_time":"14:42:06","last_time_stamp":"02:42:06 PM","ride_image":"https:maps.googleapis.com\/maps\/api\/staticmap?center=&zoom=12&size=200x200&maptype=roadmap&markers=color:green|label:S|28.412770232628368,77.0444543659687&markers=color:red|label:D|28.395504218118827,77.05988444387913&key=AIzaSyAIFe17P91Mfez3T6cqk7hfDSyvMO812Z4","later_date":"","later_time":"","driver_id":"0","car_type_id":"2","ride_type":"1","pem_file":"1","ride_status":"1","payment_status":"0","reason_id":"0","payment_option_id":"1","card_id":"0","ride_platform":"1","ride_admin_status":"1","date":"2017-11-03"}}
drop_lat: 28.395504218118827
drop_long: 77.05988444387913
drop_location: IREO Uptown Connectivity Rd, Badshahpur, Sector 66, Gurugram, Haryana 122102, India
car_type_id:2
user_id:1
coupon_code :
pickup_lat : 28.412770232628368
pickup_long : 77.0444543659687
pickup_location :322B, Sohna Rd, Sector 49, Gurugram, Haryana 122018, India
payment_option_id :1
card_id :
pem_file :1
-------------------------
Ride Accept api -: November 3, 2017, 2:42 pm
Response: {"result":1,"msg":"Booking Accepted!!","details":{"ride_id":"21","user_id":"1","coupon_code":"","pickup_lat":"28.412770232628368","pickup_long":"77.0444543659687","pickup_location":"322B, Sohna Rd, Sector 49, Gurugram, Haryana 122018, India","drop_lat":"28.395504218118827","drop_long":"77.05988444387913","drop_location":"IREO Uptown Connectivity Rd, Badshahpur, Sector 66, Gurugram, Haryana 122102, India","ride_date":"Vendredi, 3 Novembre","ride_time":"14:42:06","last_time_stamp":"02:42:11 PM","ride_image":"https:maps.googleapis.com\/maps\/api\/staticmap?center=&zoom=12&size=200x200&maptype=roadmap&markers=color:green|label:S|28.412770232628368,77.0444543659687&markers=color:red|label:D|28.395504218118827,77.05988444387913&key=AIzaSyAIFe17P91Mfez3T6cqk7hfDSyvMO812Z4","later_date":"","later_time":"","driver_id":"3","car_type_id":"2","ride_type":"1","pem_file":"1","ride_status":"3","payment_status":"0","reason_id":"0","payment_option_id":"1","card_id":"0","ride_platform":"1","ride_admin_status":"1","date":"2017-11-03","user_type":"1","user_name":"cheikh .","user_email":"ncheikha@gmail.com","user_phone":"+221786392959","user_password":"newest","user_image":"http:\/\/apporioinfolabs.com\/Izycab\/izycab\/uploads\/1509606865458.jpg","device_id":"cxlFafB9eiA:APA91bHTTzJMtqDv-WPqfHY927jstQ48QQxwwbjxaM6U-z36Jl3ZoWpwGwYlXeSvqDluoW1YbD_CpH-PeDkcmamqQUazCBo2zS25kUAFLQSn21z5imFR7hi-SJiXpdCSwQweNF7dvffB","flag":"2","wallet_money":"0","register_date":"Wednesday, Nov 1","referral_code":"","free_rides":"0","referral_code_send":"0","phone_verified":"0","email_verified":"0","password_created":"0","facebook_id":"","facebook_mail":"","facebook_image":"","facebook_firstname":"","facebook_lastname":"","google_id":"","google_name":"","google_mail":"","google_image":"","google_token":"","facebook_token":"","token_created":"0","login_logout":"1","rating":"3.1666666666667","user_delete":"0","unique_number":"","user_signup_type":"1","user_signup_date":"2017-11-01","status":"1","car_type_name":"PRESTIGE","car_name_arabic":"","car_type_name_french":"HATCHBACK","car_type_image":"uploads\/car\/editcar_2.png","cartype_image_size":"webstatic\/img\/fleet-image\/prime-play.png","ride_mode":"1","car_admin_status":"1","company_id":"0","commission":"0","driver_name":"abdoul","driver_email":"bonfoh@gmail.com","driver_phone":"773581566","driver_image":"uploads\/driver\/1509634794driver_3.jpg","driver_password":"newest","driver_token":"kvMOrJLnU2S3HJvM","total_payment_eraned":"8750","company_payment":"0","driver_payment":"","car_model_id":"3","car_number":"DK6363BC","city_id":"56","license":"","license_expire":"","rc":"","rc_expire":"","insurance":"","insurance_expire":"","other_docs":"","driver_bank_name":"","driver_account_number":"","total_card_payment":"0.00","total_cash_payment":"0.00","amount_transfer_pending":"0.00","current_lat":"28.4123296","current_long":"77.0434145","current_location":"","last_update":"14:42","last_update_date":"Friday, Nov 3, 2017","completed_rides":"4","reject_rides":"3","cancelled_rides":"2","busy":"1","online_offline":"1","detail_status":"2","payment_transfer":"0","verification_date":"","verification_status":"1","driver_signup_date":"2017-11-01","driver_status_image":"http:\/\/www.apporiotaxi.com\/superadminpanel\/images\/icons8-Error-80.png","driver_status_message":"your document id in under process, You will be notified very soon","total_document_need":"1","driver_admin_status":"1","verfiy_document":"0"}}
ride_id: 21
driver_id: 3
driver_token: kvMOrJLnU2S3HJvM
-------------------------
car by city api -: November 3, 2017, 2:43 pm
Response: {"result":1,"msg":[{"car_type_id":"2","car_type_name":"PRESTIGE","car_name_arabic":"","car_type_name_french":"HATCHBACK","car_type_image":"uploads\/car\/editcar_2.png","cartype_image_size":"webstatic\/img\/fleet-image\/prime-play.png","ride_mode":"1","car_admin_status":"1","city_id":"56"},{"car_type_id":"5","car_type_name":"SUV","car_name_arabic":"","car_type_name_french":"","car_type_image":"uploads\/car\/editcar_5.png","cartype_image_size":"5848","ride_mode":"1","car_admin_status":"1","city_id":"56"}]}
city_id: 56
-------------------------
car by city api -: November 3, 2017, 2:47 pm
Response: {"result":1,"msg":"0.10777134264342","details":{"ride_id":"22","user_id":"1","coupon_code":"","pickup_lat":"28.412770232628368","pickup_long":"77.0444543659687","pickup_location":"322B, Sohna Rd, Sector 49, Gurugram, Haryana 122018, India","drop_lat":"28.395504218118827","drop_long":"77.05988444387913","drop_location":"IREO Uptown Connectivity Rd, Badshahpur, Sector 66, Gurugram, Haryana 122102, India","ride_date":"Vendredi, 3 Novembre","ride_time":"14:47:23","last_time_stamp":"02:47:23 PM","ride_image":"https:maps.googleapis.com\/maps\/api\/staticmap?center=&zoom=12&size=200x200&maptype=roadmap&markers=color:green|label:S|28.412770232628368,77.0444543659687&markers=color:red|label:D|28.395504218118827,77.05988444387913&key=AIzaSyAIFe17P91Mfez3T6cqk7hfDSyvMO812Z4","later_date":"","later_time":"","driver_id":"0","car_type_id":"2","ride_type":"1","pem_file":"1","ride_status":"1","payment_status":"0","reason_id":"0","payment_option_id":"1","card_id":"0","ride_platform":"1","ride_admin_status":"1","date":"2017-11-03"}}
drop_lat: 28.395504218118827
drop_long: 77.05988444387913
drop_location: IREO Uptown Connectivity Rd, Badshahpur, Sector 66, Gurugram, Haryana 122102, India
car_type_id:2
user_id:1
coupon_code :
pickup_lat : 28.412770232628368
pickup_long : 77.0444543659687
pickup_location :322B, Sohna Rd, Sector 49, Gurugram, Haryana 122018, India
payment_option_id :1
card_id :
pem_file :1
-------------------------
Ride Accept api -: November 3, 2017, 2:47 pm
Response: {"result":1,"msg":"Booking Accepted!!","details":{"ride_id":"22","user_id":"1","coupon_code":"","pickup_lat":"28.412770232628368","pickup_long":"77.0444543659687","pickup_location":"322B, Sohna Rd, Sector 49, Gurugram, Haryana 122018, India","drop_lat":"28.395504218118827","drop_long":"77.05988444387913","drop_location":"IREO Uptown Connectivity Rd, Badshahpur, Sector 66, Gurugram, Haryana 122102, India","ride_date":"Vendredi, 3 Novembre","ride_time":"14:47:23","last_time_stamp":"02:47:26 PM","ride_image":"https:maps.googleapis.com\/maps\/api\/staticmap?center=&zoom=12&size=200x200&maptype=roadmap&markers=color:green|label:S|28.412770232628368,77.0444543659687&markers=color:red|label:D|28.395504218118827,77.05988444387913&key=AIzaSyAIFe17P91Mfez3T6cqk7hfDSyvMO812Z4","later_date":"","later_time":"","driver_id":"3","car_type_id":"2","ride_type":"1","pem_file":"1","ride_status":"3","payment_status":"0","reason_id":"0","payment_option_id":"1","card_id":"0","ride_platform":"1","ride_admin_status":"1","date":"2017-11-03","user_type":"1","user_name":"cheikh .","user_email":"ncheikha@gmail.com","user_phone":"+221786392959","user_password":"newest","user_image":"http:\/\/apporioinfolabs.com\/Izycab\/izycab\/uploads\/1509606865458.jpg","device_id":"cxlFafB9eiA:APA91bHTTzJMtqDv-WPqfHY927jstQ48QQxwwbjxaM6U-z36Jl3ZoWpwGwYlXeSvqDluoW1YbD_CpH-PeDkcmamqQUazCBo2zS25kUAFLQSn21z5imFR7hi-SJiXpdCSwQweNF7dvffB","flag":"2","wallet_money":"0","register_date":"Wednesday, Nov 1","referral_code":"","free_rides":"0","referral_code_send":"0","phone_verified":"0","email_verified":"0","password_created":"0","facebook_id":"","facebook_mail":"","facebook_image":"","facebook_firstname":"","facebook_lastname":"","google_id":"","google_name":"","google_mail":"","google_image":"","google_token":"","facebook_token":"","token_created":"0","login_logout":"1","rating":"3.1666666666667","user_delete":"0","unique_number":"","user_signup_type":"1","user_signup_date":"2017-11-01","status":"1","car_type_name":"PRESTIGE","car_name_arabic":"","car_type_name_french":"HATCHBACK","car_type_image":"uploads\/car\/editcar_2.png","cartype_image_size":"webstatic\/img\/fleet-image\/prime-play.png","ride_mode":"1","car_admin_status":"1","company_id":"0","commission":"0","driver_name":"abdoul","driver_email":"bonfoh@gmail.com","driver_phone":"773581566","driver_image":"uploads\/driver\/1509634794driver_3.jpg","driver_password":"newest","driver_token":"kvMOrJLnU2S3HJvM","total_payment_eraned":"8750","company_payment":"0","driver_payment":"","car_model_id":"3","car_number":"DK6363BC","city_id":"56","license":"","license_expire":"","rc":"","rc_expire":"","insurance":"","insurance_expire":"","other_docs":"","driver_bank_name":"","driver_account_number":"","total_card_payment":"0.00","total_cash_payment":"0.00","amount_transfer_pending":"0.00","current_lat":"28.4123475","current_long":"77.0434627","current_location":"----","last_update":"14:47","last_update_date":"Friday, Nov 3, 2017","completed_rides":"4","reject_rides":"3","cancelled_rides":"3","busy":"1","online_offline":"1","detail_status":"2","payment_transfer":"0","verification_date":"","verification_status":"1","driver_signup_date":"2017-11-01","driver_status_image":"http:\/\/www.apporiotaxi.com\/superadminpanel\/images\/icons8-Error-80.png","driver_status_message":"your document id in under process, You will be notified very soon","total_document_need":"1","driver_admin_status":"1","verfiy_document":"0"}}
ride_id: 22
driver_id: 3
driver_token: kvMOrJLnU2S3HJvM
-------------------------
ride start to road  Api - : November 3, 2017, 2:47 pm
ride_id :22
driver_id: 3
begin_lat: 28.4123562
begin_long: 77.0434608
driver_token: kvMOrJLnU2S3HJvM
-------------------------
car by city api -: November 3, 2017, 2:48 pm
Response: {"result":1,"msg":"Drop Location Change","details":{"ride_id":"22","user_id":"1","pickup_lat":"28.412770232628368","pickup_long":"77.0444543659687","pickup_location":"322B, Sohna Rd, Sector 49, Gurugram, Haryana 122018, India","drop_lat":"31.1048294","drop_long":"77.17339009999999","drop_location":"Himachal Pradesh","ride_date":"Vendredi, 3 Novembre","ride_time":"14:47:23","ride_status":"6","ride_type":"1","driver_id":"3","driver_name":"abdoul","driver_image":"uploads\/driver\/1509634794driver_3.jpg","driver_rating":"3.1666666666667","driver_phone":"773581566","driver_lat":"28.4123296","driver_long":"77.0434145","car_number":"DK6363BC","payment_status":"0","car_type_name":"PRESTIGE","car_model_name":"C-\u00c9LYS\u00c9E","begin_lat":"28.4123562","begin_long":"77.0434608","arrived_time":"02:47:36 PM","begin_time":"02:47:52 PM","begin_location":"IRIS Tech Park, Sector 49, Gurugram, Haryana 122018, India","end_location":"","amount":"","distance":"","time":" Min","car_type_image":"uploads\/car\/editcar_2.png","done_ride_id":"5","driver_location":"","ride_image":"https:maps.googleapis.com\/maps\/api\/staticmap?center=&zoom=12&size=200x200&maptype=roadmap&markers=color:green|label:S|28.412770232628368,77.0444543659687&markers=color:red|label:D|28.395504218118827,77.05988444387913&key=AIzaSyAIFe17P91Mfez3T6cqk7hfDSyvMO812Z4","waiting_time":"0 Min","waiting_price":"0","done_ride_time":" Min","ride_time_price":"0","coupon_code":"","coupons_price":"","total_amount":"0","end_time":"","payment_option_id":"1","payment_option_name":"CASH"}}
drop_lat: 31.1048294
drop_long: 77.17339009999999
drop_location: Himachal Pradesh
app_id: 1
ride_id: 22
-------------------------
ride end Api - : November 3, 2017, 2:48 pm
ride_id: 22
driver_id: 3
end_lat: 28.4123556
end_long: 77.0434582
meter_distance: 0.0
lat_long: 
-------------------------
Driver App - Login driver Api: November 3, 2017, 2:59 pm
Response: Array
(
    [driver_id] => 1
    [company_id] => 0
    [commission] => 0
    [driver_name] => ghh
    [driver_email] => chh@gmail.com
    [driver_phone] => 8285469069
    [driver_image] => 
    [driver_password] => 123456
    [driver_token] => epeOSQ6bdTFQT1l1
    [total_payment_eraned] => 0
    [company_payment] => 0
    [driver_payment] => 
    [device_id] => eGtD1EoPIHY:APA91bH5qEY7uSMCcm8IenzlHJJDfKwWILYHgbvl2GaOauAA-CYvZLE8ccRmAF_RvGpg3ycctb-BuZa74IWOvs88aydrDP1IGdEm3wrEmIsrWUWxb_mtcg8MjJG7kH3C8FLx0UtKQZ0y
    [flag] => 2
    [rating] => 
    [car_type_id] => 2
    [car_model_id] => 3
    [car_number] => vhhf
    [city_id] => 56
    [register_date] => Wednesday, Nov 1
    [license] => 
    [license_expire] => 
    [rc] => 
    [rc_expire] => 
    [insurance] => 
    [insurance_expire] => 
    [other_docs] => 
    [driver_bank_name] => 
    [driver_account_number] => 
    [total_card_payment] => 0.00
    [total_cash_payment] => 0.00
    [amount_transfer_pending] => 0.00
    [current_lat] => 28.4123407
    [current_long] => 77.0434204
    [current_location] => ----
    [last_update] => 02:59
    [last_update_date] => Friday, Nov 3, 2017
    [completed_rides] => 0
    [reject_rides] => 0
    [cancelled_rides] => 0
    [login_logout] => 1
    [busy] => 0
    [online_offline] => 2
    [detail_status] => 2
    [payment_transfer] => 0
    [verification_date] => 2017-11-01
    [verification_status] => 1
    [unique_number] => 
    [driver_signup_date] => 2017-11-01
    [driver_status_image] => http://www.apporiotaxi.com/superadminpanel/images/icons8-Error-80.png
    [driver_status_message] => your document id in under process, You will be notified very soon
    [total_document_need] => 3
    [driver_admin_status] => 1
    [verfiy_document] => 3
    [city_name] => Gurugram
    [city_latitude] => 
    [city_longitude] => 
    [currency] => FCFA
    [currency_iso_code] => FCFA
    [currency_unicode] => 0
    [distance] => Km
    [city_name_arabic] => 
    [city_name_french] => 
    [city_admin_status] => 1
    [car_type_name] => PRESTIGE
    [car_model_name] => C-ÉLYSÉE
)

driver_email_phone: 8285469069
driver_password: 123456
-------------------------
Driver App - Login driver Api: November 3, 2017, 3:00 pm
Response: Array
(
    [driver_id] => 3
    [company_id] => 0
    [commission] => 0
    [driver_name] => abdoul
    [driver_email] => bonfoh@gmail.com
    [driver_phone] => 773581566
    [driver_image] => uploads/driver/1509634794driver_3.jpg
    [driver_password] => newest
    [driver_token] => 9mxJA0XZK5pgG4sN
    [total_payment_eraned] => 11250
    [company_payment] => 0
    [driver_payment] => 
    [device_id] => cxlFafB9eiA:APA91bHTTzJMtqDv-WPqfHY927jstQ48QQxwwbjxaM6U-z36Jl3ZoWpwGwYlXeSvqDluoW1YbD_CpH-PeDkcmamqQUazCBo2zS25kUAFLQSn21z5imFR7hi-SJiXpdCSwQweNF7dvffB
    [flag] => 2
    [rating] => 2.875
    [car_type_id] => 2
    [car_model_id] => 3
    [car_number] => DK6363BC
    [city_id] => 56
    [register_date] => Wednesday, Nov 1
    [license] => 
    [license_expire] => 
    [rc] => 
    [rc_expire] => 
    [insurance] => 
    [insurance_expire] => 
    [other_docs] => 
    [driver_bank_name] => 
    [driver_account_number] => 
    [total_card_payment] => 0.00
    [total_cash_payment] => 0.00
    [amount_transfer_pending] => 0.00
    [current_lat] => 28.4123469
    [current_long] => 77.0434787
    [current_location] => ----
    [last_update] => 02:58
    [last_update_date] => Friday, Nov 3, 2017
    [completed_rides] => 5
    [reject_rides] => 3
    [cancelled_rides] => 3
    [login_logout] => 1
    [busy] => 0
    [online_offline] => 1
    [detail_status] => 2
    [payment_transfer] => 0
    [verification_date] => 
    [verification_status] => 1
    [unique_number] => 
    [driver_signup_date] => 2017-11-01
    [driver_status_image] => http://www.apporiotaxi.com/superadminpanel/images/icons8-Error-80.png
    [driver_status_message] => your document id in under process, You will be notified very soon
    [total_document_need] => 1
    [driver_admin_status] => 1
    [verfiy_document] => 0
    [city_name] => Gurugram
    [city_latitude] => 
    [city_longitude] => 
    [currency] => FCFA
    [currency_iso_code] => FCFA
    [currency_unicode] => 0
    [distance] => Km
    [city_name_arabic] => 
    [city_name_french] => 
    [city_admin_status] => 1
    [car_type_name] => PRESTIGE
    [car_model_name] => C-ÉLYSÉE
)

driver_email_phone: 773581566
driver_password: newest
-------------------------
car by city api -: November 3, 2017, 3:14 pm
Response: {"result":1,"msg":"0.46002310520031","details":{"ride_id":"23","user_id":"1","coupon_code":"","pickup_lat":"28.408214090051146","pickup_long":"77.04359605908394","pickup_location":"C-122, Sohna - Gurgaon Rd, Tatvam Villas, Uppal Southend, Sector 49, Gurugram, Haryana 122004, India","drop_lat":"28.334787490666066","drop_long":"77.00285296887161","drop_location":"Unnamed Road, Garat Pur Bas, Haryana 122103, India","ride_date":"Vendredi, 3 Novembre","ride_time":"15:14:56","last_time_stamp":"03:14:56 PM","ride_image":"https:maps.googleapis.com\/maps\/api\/staticmap?center=&zoom=12&size=200x200&maptype=roadmap&markers=color:green|label:S|28.408214090051146,77.04359605908394&markers=color:red|label:D|28.334787490666066,77.00285296887161&key=AIzaSyAIFe17P91Mfez3T6cqk7hfDSyvMO812Z4","later_date":"","later_time":"","driver_id":"0","car_type_id":"2","ride_type":"1","pem_file":"1","ride_status":"1","payment_status":"0","reason_id":"0","payment_option_id":"1","card_id":"0","ride_platform":"1","ride_admin_status":"1","date":"2017-11-03"}}
drop_lat: 28.334787490666066
drop_long: 77.00285296887161
drop_location: Unnamed Road, Garat Pur Bas, Haryana 122103, India
car_type_id:2
user_id:1
coupon_code :
pickup_lat : 28.408214090051146
pickup_long : 77.04359605908394
pickup_location :C-122, Sohna - Gurgaon Rd, Tatvam Villas, Uppal Southend, Sector 49, Gurugram, Haryana 122004, India
payment_option_id :1
card_id :
pem_file :1
-------------------------
