car by city api -: September 27, 2017, 7:04 am
Response: {"result":1,"msg":[{"car_type_id":"2","car_type_name":"HATCHBACK","car_name_arabic":"","car_type_name_french":"HATCHBACK","car_type_image":"uploads\/car\/editcar_2.png","cartype_image_size":"webstatic\/img\/fleet-image\/prime-play.png","ride_mode":"1","car_admin_status":"1","city_id":"56"},{"car_type_id":"3","car_type_name":"LUXURY","car_name_arabic":"","car_type_name_french":"LUXURY","car_type_image":"uploads\/car\/editcar_3.png","cartype_image_size":"webstatic\/img\/fleet-image\/lux.png","ride_mode":"1","car_admin_status":"1","city_id":"56"},{"car_type_id":"4","car_type_name":"Mini","car_name_arabic":"","car_type_name_french":"Mini","car_type_image":"uploads\/car\/editcar_4.png","cartype_image_size":"webstatic\/img\/fleet-image\/mini.png","ride_mode":"1","car_admin_status":"1","city_id":"56"}]}
city_id: 56
-------------------------
car by city api -: September 27, 2017, 7:04 am
Response: {"result":1,"msg":[{"car_type_id":"2","car_type_name":"HATCHBACK","car_name_arabic":"","car_type_name_french":"HATCHBACK","car_type_image":"uploads\/car\/editcar_2.png","cartype_image_size":"webstatic\/img\/fleet-image\/prime-play.png","ride_mode":"1","car_admin_status":"1","city_id":"121"},{"car_type_id":"3","car_type_name":"LUXURY","car_name_arabic":"","car_type_name_french":"LUXURY","car_type_image":"uploads\/car\/editcar_3.png","cartype_image_size":"webstatic\/img\/fleet-image\/lux.png","ride_mode":"1","car_admin_status":"1","city_id":"121"},{"car_type_id":"4","car_type_name":"Mini","car_name_arabic":"","car_type_name_french":"Mini","car_type_image":"uploads\/car\/editcar_4.png","cartype_image_size":"webstatic\/img\/fleet-image\/mini.png","ride_mode":"1","car_admin_status":"1","city_id":"121"}]}
city_id: 121
-------------------------
car by city api -: September 27, 2017, 3:44 pm
Response: {"result":1,"msg":[{"car_type_id":"2","car_type_name":"HATCHBACK","car_name_arabic":"","car_type_name_french":"HATCHBACK","car_type_image":"uploads\/car\/editcar_2.png","cartype_image_size":"webstatic\/img\/fleet-image\/prime-play.png","ride_mode":"1","car_admin_status":"1","city_id":"121"},{"car_type_id":"3","car_type_name":"LUXURY","car_name_arabic":"","car_type_name_french":"LUXURY","car_type_image":"uploads\/car\/editcar_3.png","cartype_image_size":"webstatic\/img\/fleet-image\/lux.png","ride_mode":"1","car_admin_status":"1","city_id":"121"},{"car_type_id":"4","car_type_name":"Mini","car_name_arabic":"","car_type_name_french":"Mini","car_type_image":"uploads\/car\/editcar_4.png","cartype_image_size":"webstatic\/img\/fleet-image\/mini.png","ride_mode":"1","car_admin_status":"1","city_id":"121"}]}
city_id: 121
-------------------------
Driver App - Login driver Api: September 27, 2017, 3:44 pm
Response: Array
(
    [driver_id] => 2
    [company_id] => 0
    [commission] => 10
    [driver_name] => amadou
    [driver_email] => ama@gmail.com
    [driver_phone] => 773581567
    [driver_image] => 
    [driver_password] => newest
    [driver_token] => aPNkwgND4hLCzw1B
    [total_payment_eraned] => 0
    [company_payment] => 0
    [driver_payment] => 
    [device_id] => 
    [flag] => 0
    [rating] => 
    [car_type_id] => 2
    [car_model_id] => 3
    [car_number] => DK6353BD
    [city_id] => 121
    [register_date] => Wednesday, Sep 27
    [license] => 
    [license_expire] => 
    [rc] => 
    [rc_expire] => 
    [insurance] => 
    [insurance_expire] => 
    [other_docs] => 
    [driver_bank_name] => 
    [driver_account_number] => 
    [total_card_payment] => 0.00
    [total_cash_payment] => 0.00
    [amount_transfer_pending] => 0.00
    [current_lat] => 
    [current_long] => 
    [current_location] => 
    [last_update] => 
    [last_update_date] => 
    [completed_rides] => 0
    [reject_rides] => 0
    [cancelled_rides] => 0
    [login_logout] => 2
    [busy] => 0
    [online_offline] => 0
    [detail_status] => 1
    [payment_transfer] => 0
    [verification_date] => 
    [verification_status] => 0
    [unique_number] => 
    [driver_signup_date] => 2017-09-27
    [driver_status_image] => http://www.apporiotaxi.com/superadminpanel/images/icons8-Error-80.png
    [driver_status_message] => your document id in under process, You will be notified very soon
    [total_document_need] => 4
    [driver_admin_status] => 1
    [verfiy_document] => 0
    [city_name] => Dakar
    [city_latitude] => 14.7645042
    [city_longitude] => -17.3660286
    [currency] => $
    [currency_iso_code] => AUD
    [currency_unicode] => 0024
    [distance] => Miles
    [city_name_arabic] => 
    [city_name_french] => 
    [city_admin_status] => 1
    [car_type_name] => HATCHBACK
    [car_model_name] => Nano
)

driver_email_phone: 773581567
driver_password: newest
-------------------------
Driver App - Login driver Api: September 27, 2017, 3:45 pm
Response: Array
(
    [driver_id] => 2
    [company_id] => 0
    [commission] => 10
    [driver_name] => amadou
    [driver_email] => ama@gmail.com
    [driver_phone] => 773581567
    [driver_image] => 
    [driver_password] => newest
    [driver_token] => BUxvIb4GEBXGEO6X
    [total_payment_eraned] => 0
    [company_payment] => 0
    [driver_payment] => 
    [device_id] => 
    [flag] => 0
    [rating] => 
    [car_type_id] => 2
    [car_model_id] => 3
    [car_number] => DK6353BD
    [city_id] => 121
    [register_date] => Wednesday, Sep 27
    [license] => 
    [license_expire] => 
    [rc] => 
    [rc_expire] => 
    [insurance] => 
    [insurance_expire] => 
    [other_docs] => 
    [driver_bank_name] => 
    [driver_account_number] => 
    [total_card_payment] => 0.00
    [total_cash_payment] => 0.00
    [amount_transfer_pending] => 0.00
    [current_lat] => 
    [current_long] => 
    [current_location] => 
    [last_update] => 
    [last_update_date] => 
    [completed_rides] => 0
    [reject_rides] => 0
    [cancelled_rides] => 0
    [login_logout] => 1
    [busy] => 0
    [online_offline] => 0
    [detail_status] => 2
    [payment_transfer] => 0
    [verification_date] => 
    [verification_status] => 1
    [unique_number] => 
    [driver_signup_date] => 2017-09-27
    [driver_status_image] => http://www.apporiotaxi.com/superadminpanel/images/icons8-Error-80.png
    [driver_status_message] => your document id in under process, You will be notified very soon
    [total_document_need] => 4
    [driver_admin_status] => 1
    [verfiy_document] => 0
    [city_name] => Dakar
    [city_latitude] => 14.7645042
    [city_longitude] => -17.3660286
    [currency] => $
    [currency_iso_code] => AUD
    [currency_unicode] => 0024
    [distance] => Miles
    [city_name_arabic] => 
    [city_name_french] => 
    [city_admin_status] => 1
    [car_type_name] => HATCHBACK
    [car_model_name] => Nano
)

driver_email_phone: 773581567
driver_password: newest
-------------------------
