car by city api -: November 5, 2017, 2:31 pm
Response: {"result":1,"msg":"0.37666938452963","details":{"ride_id":"29","user_id":"1","coupon_code":"","pickup_lat":"28.414916417515496","pickup_long":"77.04095173627138","pickup_location":"1106, Sohna Rd, Block S, Sispal Vihar, Sector 47, Gurugram, Haryana 122004, India","drop_lat":"28.374412601538417","drop_long":"77.01370753347874","drop_location":"Sakatpur Rd, Palra, Haryana 122103, India","ride_date":"Sunday, Nov 5","ride_time":"14:31:49","last_time_stamp":"02:31:49 PM","ride_image":"https:maps.googleapis.com\/maps\/api\/staticmap?center=&zoom=12&size=200x200&maptype=roadmap&markers=color:green|label:S|28.414916417515496,77.04095173627138&markers=color:red|label:D|28.374412601538417,77.01370753347874&key=AIzaSyAIFe17P91Mfez3T6cqk7hfDSyvMO812Z4","later_date":"","later_time":"","driver_id":"0","car_type_id":"2","ride_type":"1","pem_file":"1","ride_status":"1","payment_status":"0","reason_id":"0","payment_option_id":"1","card_id":"0","ride_platform":"1","ride_admin_status":"1","date":"2017-11-05"}}
drop_lat: 28.374412601538417
drop_long: 77.01370753347874
drop_location: Sakatpur Rd, Palra, Haryana 122103, India
car_type_id:2
user_id:1
coupon_code :
pickup_lat : 28.414916417515496
pickup_long : 77.04095173627138
pickup_location :1106, Sohna Rd, Block S, Sispal Vihar, Sector 47, Gurugram, Haryana 122004, India
payment_option_id :1
card_id :
pem_file :1
-------------------------
